{
   "houses":[
      {
         "owner":"Gabriela Radu",
         "street":"Nicolae Olahus",
         "city":"Sibiu",
         "country":"Romania",
         "number":5,
         "latitude":24.542,
         "longitude":42.012,
         "price":50000,
         "type":"Office",
         "code":"SGJ",
         "created":"2013-04-05",
         "due_date":"2014-01-01"
      },
      {
         "owner":"Mircea Soaica",
         "street":"Dimitrie Cantemir",
         "city":"Sibiu",
         "country":"Romania",
         "number":80,
         "latitude":24.142,
         "longitude":42.212,
         "price":120000,
         "type":"house",
         "code":"ASCE",
         "created":"2013-02-05",
         "due_date":"2015-01-01"
      },
      {
         "owner":"Tovisi Constantin",
         "street":"Strandului",
         "city":"Sibiu",
         "country":"Romania",
         "number":10,
         "latitude":22.542,
         "longitude":41.012,
         "price":80000,
         "type":"Office",
         "code":"SGJ",
         "created":"2012-10-05",
         "due_date":"2013-10-10"
      },
      {
         "owner":"Gigel Smith",
         "street":"Rusciorului",
         "city":"Sibiu",
         "country":"Romania",
         "number":1,
         "latitude":24.098,
         "longitude":43.014,
         "price":45000,
         "type":"flat",
         "code":"ALABALA",
         "created":"2013-09-01",
         "due_date":"2014-05-04"
      }
   ]
}